[gd_scene load_steps=2 format=2]

[ext_resource path="res://Scripts/BaseTreeNode.gd" type="Script" id=1]

[node name="TreeNode" type="VBoxContainer"]
margin_right = 90.0
margin_bottom = 40.0
script = ExtResource( 1 )
__meta__ = {
"_edit_use_anchors_": false
}

[node name="Button" type="Button" parent="."]
margin_right = 90.0
margin_bottom = 40.0
rect_min_size = Vector2( 40, 40 )
hint_tooltip = "Upgrade

Cost: 
1 Time Unit

Needs: 
1 Friend

"

[node name="ProgressBar" type="ProgressBar" parent="."]
margin_top = 44.0
margin_right = 90.0
margin_bottom = 54.0
rect_min_size = Vector2( 20, 10 )
percent_visible = false
__meta__ = {
"_edit_use_anchors_": false
}

[node name="Timer" type="Timer" parent="."]
one_shot = true
[connection signal="pressed" from="Button" to="." method="_on_Button_pressed"]
[connection signal="timeout" from="Timer" to="." method="_on_Timer_timeout"]
